/* XPM */
static char * nomess_xpm[] = {
"16 16 56 1",
" 	c None",
".	c None",
"+	c #000000",
"@	c #4D4D4D",
"#	c #AFAFAF",
"$	c #B9B9B9",
"%	c #AEAEAE",
"&	c #949494",
"*	c #737373",
"=	c #AAAAAA",
"-	c #CECECE",
";	c #E1E1E1",
">	c #CCCCCC",
",	c #A8A8A8",
"'	c #828282",
")	c #5B5B5B",
"!	c #646464",
"~	c #D5D5D5",
"{	c #F1F1F1",
"]	c #D3D3D3",
"^	c #ACACAC",
"/	c #858585",
"(	c #5D5D5D",
"_	c #222222",
":	c #777777",
"<	c #A0A0A0",
"[	c #BEBEBE",
"}	c #CBCBCB",
"|	c #BCBCBC",
"1	c #9E9E9E",
"2	c #7B7B7B",
"3	c #555555",
"4	c #2B2B2B",
"5	c #606060",
"6	c #868686",
"7	c #9B9B9B",
"8	c #A3A3A3",
"9	c #9A9A9A",
"0	c #848484",
"a	c #676767",
"b	c #454545",
"c	c #1D1D1D",
"d	c #666666",
"e	c #767676",
"f	c #757575",
"g	c #4C4C4C",
"h	c #2F2F2F",
"i	c #414141",
"j	c #4F4F4F",
"k	c #535353",
"l	c #2D2D2D",
"m	c #131313",
"n	c #1E1E1E",
"o	c #2C2C2C",
"p	c #282828",
"q	c #090909",
"................",
"................",
"................",
"......++@++.....",
".....+#$%&*+....",
"....+=-;>,')+...",
"....!#~{]^/(_...",
"....:<[}|1234...",
"....567890abc...",
"....+de2f!gh+...",
".....ijkjilm....",
"......nopcq.....",
"................",
"................",
"................",
"................"};
