/* XPM */
static char * icon_inv_xpm[] = {
"16 16 6 1",
" 	c None",
".	c #000000",
"+	c #FFFFFF",
"@	c #0000ED",
"#	c #0000BD",
"$	c #0000FF",
"                ",
"                ",
"                ",
"                ",
"     ......     ",
"  ............  ",
"  ............  ",
"...+++@###+++...",
".++++@$@###++++.",
"...++#@####++...",
"  ..+######+..  ",
"  ...+####+...  ",
"    ........    ",
"                ",
"                ",
"                "};
